[{
    "text": "系统管理",
    "children": [{
        "text": "管理员维护",
        "children": [{
            "text": "创建管理员"
        }, {
            "text": "维护管理员"
        }]
    }, {
        "text": "角色维护",
        "children": [{
            "text": "创建角色"
        }, {
            "text": "维护角色",
            "children": [{
                "text": "Click"
            }, {
                "text": "DblClick"
            }, {
                "text": "Drag and Drop"
            }]
        }]
    }, {
        "text": "Supports AMD/CommonJS"
    }]
}, {
    "text": "业务管理",
    "children": [{
        "text": "订单管理",
        "children": [{
            "text": "Meta/ctrl key selection"
        }, {
            "text": "Shift+Click selection"
        }, {
            "text": "Tri-State checkboxes"
        }]
    }, {
        "text": "报表汇总",
        "children": [{
            "text": "日报汇总"
        }, {
            "text": "月报汇总"
        }]        
    }]
}]
